George Bush

George Bush

Junie Strube

Gwendolin Bahrmasel

Al Gore

Hillary Clinton

Gwendolin Bahrmasel
Jodee Kelleher

Hillary Clinton

Roz Krzewinski

Hillary Clinton
John Lennon
Roz Krzewinski

Al Gore

Al Gore

Louella Floris
John Lennon

Faydra Kaduk

Al Gore

Karna Kofa

Hillary Clinton
